<?xml version="1.0" encoding="UTF-8"?>
<CustomTab xmlns="http://soap.sforce.com/2006/04/metadata">
    <customObject>true</customObject>
    <description>Anthem Leads: Assignment Rules to assign Leads by Geography or Campaign</description>
    <mobileReady>false</mobileReady>
    <motif>Custom67: Gears</motif>
</CustomTab>
