<?xml version="1.0" encoding="UTF-8"?>
<CustomTab xmlns="http://soap.sforce.com/2006/04/metadata">
    <description>Home page for Broker Services</description>
    <frameHeight>600</frameHeight>
    <hasSidebar>false</hasSidebar>
    <label>Home</label>
    <mobileReady>false</mobileReady>
    <motif>Custom32: Factory</motif>
    <url>/home/home.jsp?isdtp=vw</url>
    <urlEncodingKey>UTF-8</urlEncodingKey>
</CustomTab>
